[gd_resource type="SpatialMaterial" load_steps=2 format=2]

[sub_resource type="SpatialMaterial" id=1]
flags_unshaded = true
params_cull_mode = 1
params_grow = true
params_grow_amount = 0.01
albedo_color = Color( 0, 0, 0, 1 )

[resource]
next_pass = SubResource( 1 )
params_diffuse_mode = 4
params_specular_mode = 3
albedo_color = Color( 0.631373, 0.631373, 0.631373, 1 )
metallic = 0.3
metallic_specular = 0.75
roughness = 0.01
