[gd_resource type="SpatialMaterial" format=2]

[resource]
params_diffuse_mode = 4
params_specular_mode = 3
albedo_color = Color( 0.631373, 0.631373, 0.631373, 1 )
metallic = 0.92
metallic_specular = 0.44
